C:\Users\pc\source\repos\PersonalInfo\ClientApp\dist\out-tsc\e2e\src\app.po.js
C:\Users\pc\source\repos\PersonalInfo\ClientApp\dist\out-tsc\e2e\src\app.po.js.map
C:\Users\pc\source\repos\PersonalInfo\ClientApp\dist\out-tsc\e2e\src\app.e2e-spec.js
C:\Users\pc\source\repos\PersonalInfo\ClientApp\dist\out-tsc\e2e\src\app.e2e-spec.js.map
C:\Users\pc\source\repos\PersonalInfo\ClientApp\dist\out-tsc\src\app\app.component.js
C:\Users\pc\source\repos\PersonalInfo\ClientApp\dist\out-tsc\src\app\app.component.js.map
C:\Users\pc\source\repos\PersonalInfo\ClientApp\dist\out-tsc\src\environments\environment.js
C:\Users\pc\source\repos\PersonalInfo\ClientApp\dist\out-tsc\src\environments\environment.js.map
C:\Users\pc\source\repos\PersonalInfo\ClientApp\dist\out-tsc\src\app\services\auth\auth.service.js
C:\Users\pc\source\repos\PersonalInfo\ClientApp\dist\out-tsc\src\app\services\auth\auth.service.js.map
C:\Users\pc\source\repos\PersonalInfo\ClientApp\dist\out-tsc\src\app\login\login.component.js
C:\Users\pc\source\repos\PersonalInfo\ClientApp\dist\out-tsc\src\app\login\login.component.js.map
C:\Users\pc\source\repos\PersonalInfo\ClientApp\dist\out-tsc\src\app\services\dictionaries\dictionaries.service.js
C:\Users\pc\source\repos\PersonalInfo\ClientApp\dist\out-tsc\src\app\services\dictionaries\dictionaries.service.js.map
C:\Users\pc\source\repos\PersonalInfo\ClientApp\dist\out-tsc\src\app\services\person\person.service.js
C:\Users\pc\source\repos\PersonalInfo\ClientApp\dist\out-tsc\src\app\services\person\person.service.js.map
C:\Users\pc\source\repos\PersonalInfo\ClientApp\dist\out-tsc\src\app\person-request.model.js
C:\Users\pc\source\repos\PersonalInfo\ClientApp\dist\out-tsc\src\app\person-request.model.js.map
C:\Users\pc\source\repos\PersonalInfo\ClientApp\dist\out-tsc\src\app\dashboard\dashboard.component.js
C:\Users\pc\source\repos\PersonalInfo\ClientApp\dist\out-tsc\src\app\dashboard\dashboard.component.js.map
C:\Users\pc\source\repos\PersonalInfo\ClientApp\dist\out-tsc\src\app\number-only.directive.js
C:\Users\pc\source\repos\PersonalInfo\ClientApp\dist\out-tsc\src\app\number-only.directive.js.map
C:\Users\pc\source\repos\PersonalInfo\ClientApp\dist\out-tsc\src\app\app.module.js
C:\Users\pc\source\repos\PersonalInfo\ClientApp\dist\out-tsc\src\app\app.module.js.map
C:\Users\pc\source\repos\PersonalInfo\ClientApp\dist\out-tsc\src\main.js
C:\Users\pc\source\repos\PersonalInfo\ClientApp\dist\out-tsc\src\main.js.map
C:\Users\pc\source\repos\PersonalInfo\ClientApp\dist\out-tsc\src\polyfills.js
C:\Users\pc\source\repos\PersonalInfo\ClientApp\dist\out-tsc\src\polyfills.js.map
C:\Users\pc\source\repos\PersonalInfo\ClientApp\dist\out-tsc\src\test.js
C:\Users\pc\source\repos\PersonalInfo\ClientApp\dist\out-tsc\src\test.js.map
C:\Users\pc\source\repos\PersonalInfo\ClientApp\dist\out-tsc\src\app\app.component.spec.js
C:\Users\pc\source\repos\PersonalInfo\ClientApp\dist\out-tsc\src\app\app.component.spec.js.map
C:\Users\pc\source\repos\PersonalInfo\ClientApp\dist\out-tsc\src\app\number-only.directive.spec.js
C:\Users\pc\source\repos\PersonalInfo\ClientApp\dist\out-tsc\src\app\number-only.directive.spec.js.map
C:\Users\pc\source\repos\PersonalInfo\ClientApp\dist\out-tsc\src\app\person-request.model.spec.js
C:\Users\pc\source\repos\PersonalInfo\ClientApp\dist\out-tsc\src\app\person-request.model.spec.js.map
C:\Users\pc\source\repos\PersonalInfo\ClientApp\dist\out-tsc\src\app\dashboard\dashboard.component.spec.js
C:\Users\pc\source\repos\PersonalInfo\ClientApp\dist\out-tsc\src\app\dashboard\dashboard.component.spec.js.map
C:\Users\pc\source\repos\PersonalInfo\ClientApp\dist\out-tsc\src\app\login\login.component.spec.js
C:\Users\pc\source\repos\PersonalInfo\ClientApp\dist\out-tsc\src\app\login\login.component.spec.js.map
C:\Users\pc\source\repos\PersonalInfo\ClientApp\dist\out-tsc\src\app\services\auth\auth.service.spec.js
C:\Users\pc\source\repos\PersonalInfo\ClientApp\dist\out-tsc\src\app\services\auth\auth.service.spec.js.map
C:\Users\pc\source\repos\PersonalInfo\ClientApp\dist\out-tsc\src\app\services\dictionaries\dictionaries.service.spec.js
C:\Users\pc\source\repos\PersonalInfo\ClientApp\dist\out-tsc\src\app\services\dictionaries\dictionaries.service.spec.js.map
C:\Users\pc\source\repos\PersonalInfo\ClientApp\dist\out-tsc\src\app\services\person\person.service.spec.js
C:\Users\pc\source\repos\PersonalInfo\ClientApp\dist\out-tsc\src\app\services\person\person.service.spec.js.map
C:\Users\pc\source\repos\PersonalInfo\ClientApp\dist\out-tsc\src\environments\environment.prod.js
C:\Users\pc\source\repos\PersonalInfo\ClientApp\dist\out-tsc\src\environments\environment.prod.js.map
